…
More complex:

``` r
diamonds %>% sort_pct(cut,color)
```

    ## # A tibble: 35 x 4
    ##    cut       color     n    pct
    ##    <ord>     <ord> <int>  <dbl>
    ##  1 Ideal     G      4884 0.0905
    ##  2 Ideal     E      3903 0.0724
    ##  3 Ideal     F      3826 0.0709
    ##  4 Ideal     H      3115 0.0577
    ##  5 Premium   G      2924 0.0542
    ##  6 Ideal     D      2834 0.0525
    ##  7 Very Good E      2400 0.0445
    ##  8 Premium   H      2360 0.0438
    ##  9 Premium   E      2337 0.0433
    ## 10 Premium   F      2331 0.0432
    ## # … with 25 more rows
…
